[

  {

    "orderNum":98765,
    "item": "T-Shirt",
    "price": 27,
    "orderedBy": "Jose"
  },
  {

    "orderNum": 12345,
    "item": "Coffee Mug",
    "price": 14,
    "orderedBy": "Angela"
  },
  {

    "orderNum": 58493,
    "item": "Shoes",
    "price": 110,
    "orderedBy": "Alyssa"
  },
  {

    "orderNum": 9000,
    "item": "Cap",
    "price": 32,
    "orderedBy": "Victor"
  }
]